0	2
690	1
720	2
4050	1
4065	2
8835	1
8910	2
11385	1
11400	2
11865	1
11955	2
16215	1
16230	2
16320	1
16500	2
16680	1
16725	2
17010	1
17040	2
17490	1
17505	2
17700	1
17701	2
17702	1
18120	2
22530	1
22650	2
22665	1
22710	2
26100	1
26160	2
27660	1
27675	2
28785	1
28815	2
28830	1
28860	2
30930	1
30960	2
31995	1
32010	2
33165	1
33225	2
34755	1
34800	2
37065	1
37290	2
37455	1
37470	2
37620	1
37785	2
38505	1
38565	2
38955	1
39090	2
39120	1
39345	2
42075	1
42180	2
44280	1
44295	2
45255	1
45435	2
